<?xml version="1.0" standalone="no"?>
<!DOCTYPE svg PUBLIC "-//W3C//DTD SVG 20010904//EN"
 "http://www.w3.org/TR/2001/REC-SVG-20010904/DTD/svg10.dtd">
<svg version="1.0" xmlns="http://www.w3.org/2000/svg"
 width="1198.000000pt" height="1280.000000pt" viewBox="0 0 1198.000000 1280.000000"
 preserveAspectRatio="xMidYMid meet">
<metadata>
Created by potrace 1.15, written by Peter Selinger 2001-2017
</metadata>
<g transform="translate(0.000000,1280.000000) scale(0.100000,-0.100000)"
fill="#000000" stroke="none">
<path d="M4244 12772 c-210 -75 -418 -221 -554 -390 -95 -117 -125 -180 -125
-260 0 -59 2 -66 32 -92 43 -39 84 -49 248 -60 191 -13 217 -18 211 -38 -3
-10 -17 -84 -31 -167 -76 -440 -168 -908 -244 -1250 -61 -275 -169 -709 -203
-815 -39 -124 -114 -281 -176 -372 l-50 -73 18 -70 c24 -89 26 -271 4 -386 -8
-46 -35 -156 -58 -244 -24 -88 -58 -216 -76 -285 -18 -69 -71 -253 -117 -410
-140 -470 -188 -659 -228 -890 -9 -52 -20 -99 -25 -105 -11 -14 -71 -222 -205
-710 -184 -670 -291 -1001 -343 -1059 -11 -12 -38 -85 -61 -163 -98 -331 -175
-516 -451 -1083 -98 -201 -212 -444 -253 -542 -87 -203 -97 -223 -185 -378
-208 -366 -503 -807 -783 -1172 -60 -79 -131 -172 -157 -207 -26 -35 -102
-134 -170 -218 -213 -267 -262 -340 -262 -389 0 -14 8 -15 58 -9 120 15 230
77 466 263 57 45 130 98 161 117 37 22 72 55 99 92 73 100 194 220 408 408
186 162 215 192 284 290 241 344 401 603 544 879 45 87 101 189 125 225 118
184 230 414 442 906 69 160 161 364 205 455 49 102 96 219 123 306 50 163 68
209 85 219 18 11 38 -15 52 -70 7 -27 25 -70 41 -95 15 -25 38 -76 50 -115 30
-96 30 -290 0 -505 -29 -202 -49 -464 -68 -890 -15 -348 -24 -475 -50 -740 -7
-80 -16 -210 -20 -290 -14 -352 -33 -512 -81 -705 -61 -241 -5 -439 169 -601
35 -33 91 -73 126 -90 l62 -31 3 -119 c2 -96 7 -130 25 -177 29 -75 84 -143
153 -191 l56 -38 89 4 c77 3 103 9 208 52 248 100 549 263 642 347 51 46 102
69 156 69 22 0 107 -22 189 -50 173 -58 234 -64 289 -27 34 22 34 24 40 113 6
97 27 152 82 219 59 72 201 150 357 195 41 12 108 38 147 58 60 29 87 36 151
40 132 7 236 -35 502 -205 69 -44 145 -90 170 -103 25 -12 93 -51 152 -86 320
-192 490 -204 574 -42 13 26 12 32 -12 80 -33 64 -111 148 -188 200 -32 22
-144 85 -250 140 -105 55 -205 110 -223 124 -18 13 -68 39 -112 58 -78 33
-130 63 -325 186 -124 79 -210 118 -300 137 -87 18 -129 13 -283 -33 -240 -73
-288 -84 -351 -84 -74 0 -115 18 -137 60 -23 44 -29 322 -10 408 26 112 98
226 244 386 40 44 84 102 97 128 13 27 61 103 106 171 117 176 151 252 151
335 1 75 -12 104 -91 212 -30 40 -65 75 -93 90 -41 23 -57 25 -209 30 -149 4
-169 7 -201 28 -47 28 -64 71 -63 152 1 139 68 219 320 386 141 94 185 129
250 200 48 53 130 126 211 186 201 151 242 218 198 324 -20 49 -121 151 -180
183 -45 23 -61 26 -150 26 -91 -1 -110 -4 -215 -42 -373 -133 -336 -128 -343
-47 -4 36 -2 152 4 257 19 328 -5 471 -98 595 -14 18 -23 35 -22 37 2 2 92 50
199 106 438 232 900 427 1145 483 72 17 120 47 159 100 17 23 21 42 21 109 0
72 -4 88 -30 136 -34 62 -96 120 -163 152 -37 18 -69 24 -149 27 -162 7 -267
-25 -542 -163 -83 -41 -190 -91 -238 -111 -118 -49 -554 -264 -728 -359 -399
-220 -765 -463 -982 -656 -137 -121 -269 -199 -339 -199 -70 0 -117 63 -130
171 -5 46 0 68 31 153 58 161 118 362 200 671 42 160 116 427 165 595 150 515
218 777 384 1475 155 650 216 899 224 906 4 3 43 33 87 66 303 226 662 438
998 588 82 36 166 77 187 91 20 14 53 27 73 31 29 4 40 1 61 -20 23 -23 26
-34 26 -96 0 -57 -12 -111 -65 -289 -126 -428 -185 -552 -334 -705 -82 -85
-177 -143 -257 -158 -94 -17 -132 -52 -119 -110 9 -39 96 -133 154 -166 25
-14 75 -43 111 -64 172 -101 351 -87 521 41 72 54 122 113 194 234 122 203
188 381 290 781 36 143 84 318 106 390 36 115 41 138 37 210 -2 66 -9 92 -35
145 -64 130 -201 232 -351 261 -69 13 -161 5 -343 -32 -250 -49 -544 -177
-958 -414 -146 -84 -155 -87 -168 -69 -44 60 -42 239 6 452 17 72 35 169 42
215 54 383 178 1086 220 1246 24 93 26 251 4 336 -23 88 -62 163 -112 213 -92
91 -211 113 -349 64z m333 -7399 c-7 -266 -16 -414 -38 -588 -23 -184 -126
-307 -471 -566 -68 -51 -175 -145 -240 -210 -64 -66 -124 -119 -132 -119 -24
0 -24 56 0 235 16 126 14 384 -6 565 -30 278 29 409 228 509 81 41 148 94 354
279 112 101 216 162 276 162 l35 0 -6 -267z m-116 -1620 c54 -141 20 -306 -95
-467 -58 -82 -203 -219 -305 -291 -195 -136 -294 -286 -295 -445 -1 -96 25
-160 95 -235 131 -140 201 -130 413 60 64 58 126 110 138 116 29 15 49 -7 55
-62 4 -41 -1 -52 -87 -187 -193 -302 -371 -538 -664 -877 -71 -82 -135 -151
-143 -153 -16 -4 -18 184 -3 528 27 639 86 1173 180 1624 11 54 20 100 20 102
0 2 16 4 35 4 71 0 174 49 330 156 117 80 184 119 237 138 62 22 77 20 89 -11z
m-1 -2138 c20 -24 7 -115 -24 -179 -31 -63 -83 -106 -129 -106 -15 0 -46 -9
-68 -20 -99 -51 -62 19 152 283 33 40 50 45 69 22z"/>
<path d="M8608 12222 c-53 -13 -333 -391 -803 -1082 -316 -464 -336 -493 -406
-565 -129 -135 -148 -260 -64 -431 48 -98 145 -189 258 -243 103 -49 150 -97
173 -178 24 -84 14 -182 -46 -423 -42 -168 -53 -230 -60 -345 -11 -176 -51
-507 -220 -1820 -136 -1058 -233 -1965 -265 -2465 -4 -52 -16 -185 -28 -295
-28 -267 -30 -584 -4 -703 22 -99 18 -123 -34 -202 -46 -68 -122 -128 -312
-246 -71 -43 -154 -102 -185 -130 -32 -28 -72 -59 -91 -69 -54 -27 -131 -105
-159 -160 -37 -73 -43 -191 -12 -263 42 -97 155 -172 258 -172 62 0 191 53
291 120 47 32 151 113 230 179 135 114 239 188 356 256 28 16 172 110 320 210
296 199 413 264 915 506 654 315 1052 481 1535 641 310 103 443 137 588 150
260 24 447 -35 511 -163 44 -89 42 -103 -114 -1120 -129 -839 -218 -1350 -305
-1762 -35 -166 -78 -374 -95 -462 -41 -207 -69 -264 -152 -306 -42 -22 -129
-25 -193 -8 -22 6 -123 48 -225 94 -102 45 -211 89 -244 96 -57 12 -59 12 -77
-10 -50 -61 -2 -139 166 -269 66 -51 138 -110 160 -129 60 -55 215 -168 307
-225 230 -143 531 -248 622 -218 46 15 108 79 164 170 25 41 66 107 90 145 38
59 50 92 78 210 74 314 135 651 219 1215 25 168 66 424 90 570 96 580 125 915
128 1455 2 376 -3 440 -50 590 -27 88 -87 207 -134 266 -48 61 -287 198 -477
273 -210 84 -379 119 -577 119 -144 0 -184 -6 -395 -64 -418 -115 -758 -243
-1420 -534 -135 -59 -268 -115 -295 -125 -59 -20 -180 -80 -360 -177 -194
-105 -313 -154 -407 -168 l-48 -7 0 80 c0 251 65 1096 125 1635 14 120 25 251
25 292 0 55 4 78 16 90 21 21 41 16 167 -42 116 -53 170 -62 209 -36 156 105
216 150 358 273 182 156 270 219 357 255 54 22 59 22 77 7 11 -10 70 -93 131
-187 62 -93 135 -196 164 -227 69 -76 155 -119 249 -126 68 -4 69 -4 91 26 55
78 101 281 101 447 0 42 11 184 25 314 25 241 42 460 95 1241 17 245 48 636
70 870 62 676 84 1214 55 1325 -38 145 -113 243 -231 301 -102 51 -180 56
-326 21 -261 -64 -499 -198 -757 -430 -174 -156 -199 -183 -294 -314 -156
-216 -194 -225 -233 -53 -9 41 -26 95 -37 119 -31 67 -118 153 -268 267 -76
57 -152 121 -169 141 -37 42 -65 102 -53 113 4 4 42 38 83 74 191 171 443 469
745 881 93 127 195 258 227 292 67 71 105 145 119 235 25 154 -40 310 -152
365 -48 23 -129 35 -171 25z m868 -2529 c-16 -252 -56 -629 -109 -1018 l-12
-90 -98 -7 c-140 -10 -277 -49 -422 -121 -129 -64 -360 -227 -553 -390 -51
-44 -96 -76 -100 -72 -3 3 -8 92 -10 198 -7 337 40 491 218 707 102 124 366
364 495 450 28 18 129 113 225 211 194 196 249 234 349 238 l23 1 -6 -107z
m-207 -1682 c30 -30 34 -79 18 -198 -9 -59 -15 -133 -15 -163 0 -66 -53 -293
-82 -351 -31 -59 -93 -123 -164 -167 -33 -21 -154 -84 -267 -140 l-206 -101
-182 -172 c-99 -95 -181 -175 -181 -179 0 -17 -101 -110 -119 -110 -42 0 -56
44 -55 175 1 129 13 216 45 308 14 41 19 85 19 160 1 325 39 400 210 417 95 9
188 62 470 270 205 151 307 217 376 245 72 30 108 31 133 6z"/>
<path d="M1245 9271 c-45 -12 -72 -28 -77 -48 -15 -59 61 -153 212 -260 106
-76 137 -108 184 -186 51 -87 86 -183 145 -397 80 -292 231 -742 293 -872 97
-204 214 -345 353 -428 55 -32 64 -35 146 -35 80 0 88 2 108 25 42 49 54 83
54 145 -1 63 -12 97 -99 305 -40 96 -49 129 -54 200 -5 76 -10 91 -41 140 -81
124 -156 296 -204 467 -51 186 -161 410 -274 558 -137 180 -297 301 -476 360
-85 28 -217 40 -270 26z"/>
<path d="M4384 7821 c-88 -38 -62 -171 55 -288 76 -76 93 -111 99 -203 4 -76
-1 -104 -63 -340 -27 -102 -31 -164 -15 -222 l11 -37 51 30 c158 93 292 222
367 354 63 110 74 146 69 242 -6 115 -45 192 -152 299 -108 108 -218 165 -328
170 -40 2 -83 0 -94 -5z"/>
<path d="M9360 5722 c-246 -90 -514 -222 -830 -411 -107 -64 -215 -127 -240
-140 -131 -70 -279 -205 -324 -296 -51 -106 -28 -173 78 -225 99 -49 153 -43
327 38 175 82 177 84 364 196 182 110 473 257 617 310 53 20 138 43 190 52 51
9 114 25 140 36 51 22 112 82 129 126 18 46 13 124 -10 178 -47 105 -138 165
-261 171 -67 3 -87 -1 -180 -35z"/>
<path d="M10072 3528 c-18 -6 -51 -28 -74 -48 l-41 -36 72 -99 c250 -344 421
-486 656 -545 107 -27 157 -20 206 29 115 114 29 387 -140 447 -81 28 -114 44
-252 125 -75 44 -165 91 -199 105 -72 29 -177 39 -228 22z"/>
<path d="M8870 2970 c-57 -12 -94 -40 -98 -72 -4 -35 43 -87 132 -148 104 -70
183 -142 390 -356 196 -203 285 -277 406 -343 86 -47 124 -51 187 -20 83 40
127 121 104 192 -16 47 -251 300 -393 422 -101 87 -270 209 -379 274 -79 46
-251 71 -349 51z"/>
<path d="M7512 2405 c-52 -16 -82 -41 -82 -67 0 -29 87 -107 181 -162 46 -28
134 -82 194 -122 61 -39 162 -104 225 -144 63 -40 189 -120 280 -178 91 -58
207 -128 259 -155 85 -46 101 -51 157 -50 76 1 124 26 149 80 46 95 -39 297
-163 386 -65 47 -380 218 -511 277 -277 125 -550 179 -689 135z"/>
</g>
</svg>
